Posterior analysis & computation
…
2. Compute likelihood `\(\times\)` prior on the grid.

3. Normalize by dividing each product by the sum of the products.
]

---

## Grid approximate posterior

.large[

```
## # A tibble: 1,001 x 5
##    theta prior likelihood unstd.posterior posterior
##    <dbl> <dbl>      <dbl>           <dbl>     <dbl>
##  1 0     0       0.              0.        0.      
##  2 0.001 0.003   6.78e-40        2.03e-42  3.02e-44
##  3 0.002 0.006   1.11e-35        6.64e-38  9.87e-40
##  4 0.003 0.009   3.22e-33        2.90e-35  4.31e-37
##  5 0.004 0.012   1.80e-31        2.16e-33  3.21e-35
##  6 0.005 0.015   4.09e-30        6.13e-32  9.11e-34
##  7 0.006 0.018   5.23e-29        9.42e-31  1.40e-32
##  8 0.007 0.021   4.52e-28        9.48e-30  1.41e-31
##  9 0.008 0.024   2.92e-27        7.01e-29  1.04e-30
## 10 0.009 0.027   1.51e-26        4.09e-28  6.07e-30
## # … with 991 more rows
```
…
